﻿[
  {"name": "diy",     "url": "DIY直播.m3u"},
  {"name": "快线",     "url": "营养快线.txt"},
  {"name": "百视",     "url": "百视通.m3u"},
  {"name": "花开",     "url": "花开直播.txt"},
  {"name": "俊于",     "url": "俊于直播.txt"},
  {"name": "蜂蜜",     "url": "https://gitea.com/yaohuohuo/ystv/raw/branch/main/json/live.json"},
  {"name": "饭太硬",     "url": "http://ftyyy.tk/live.txt"},
  {"name": "肥猫",     "url": "http://我不是.肥猫.love:63/TV/tvzb.txt"}
]